{
  "id": "net.schwichtenberg.mika.quartett.dinosaurier",
  "version": "0.1",
  "name": "Dinosaurier",
  "description": "Auswahl und Zusammenstellung von Ben Br. und Mika.",
  "background": "img/bg-pflanzen.jpg",
  "fields": [{
      "key": "speed",
      "label": "Geschwindigkeit",
      "type": "number",
      "unit": "km/h"
    },
    {
      "key": "height",
      "label": "Höhe",
      "type": "number",
      "unit": "m"
    },
    {
      "key": "length",
      "label": "Länge",
      "type": "number",
      "unit": "m"
    },
    {
      "key": "weight",
      "label": "Gewicht",
      "type": "number",
      "unit": "kg"
    },
    {
      "key": "claw",
      "label": "Krallen",
      "type": "number"
    }
  ],
  "cards": [{
      "id": "dino001",
      "title": "Mosasaurus",
      "image": "img/278a7976cda25116010b0d1fd2fe2d51.jpg",
      "speed": "",
      "height": "3",
      "length": "18",
      "weight": "",
      "claw": "0"
    },
    {
      "id": "dino002",
      "title": "Kentrosaurus",
      "image": "img/375_kentrosaurus_jon_laughlin.jpg",
      "speed": "",
      "height": "",
      "length": "5",
      "weight": "",
      "claw": ""
    },
    {
      "id": "dino002a",
      "title": "Ichtyosaurus",
      "image": "img/24547B6300000578-2891161-image-a-80_1419941325983.jpg",
      "speed": "",
      "height": "",
      "length": "",
      "weight": "",
      "claw": ""
    },
    {
      "id": "dino003",
      "title": "Korytosaurus",
      "image": "img/3317571048_130186e6f9_z.jpg",
      "speed": "",
      "height": "",
      "length": "",
      "weight": "",
      "claw": ""
    },
    {
      "id": "dino004",
      "title": "Dilophosaurus",
      "image": "img/14501242615_da8a5a8e39_b.jpg",
      "speed": "",
      "height": "",
      "length": "",
      "weight": "",
      "claw": ""
    },
    {
      "id": "dino005",
      "title": "Apatosaurus",
      "image": "img/Apatosaurus-58a488495f9b58819cb94758.jpg",
      "speed": "",
      "height": "",
      "length": "26",
      "weight": "35000",
      "claw": ""
    },
    {
      "id": "dino006",
      "title": "Archeopteriks",
      "image": "img/ark-survival-evolved-2470_2770106.jpg",
      "speed": "",
      "height": "",
      "length": "",
      "weight": "",
      "claw": ""
    },
    {
      "id": "dino007",
      "title": "Dimorphodon",
      "image": "img/ARTDEPT_CC_JurassicW_005-e1457142532190.jpg",
      "speed": "",
      "height": "1.2",
      "length": "1",
      "weight": "",
      "claw": "3"
    },
    {
      "id": "dino008",
      "title": "Dynonychos",
      "image": "img/attachment.jpg",
      "speed": "",
      "height": "0.6",
      "length": "2",
      "weight": "",
      "claw": ""
    },
    {
      "id": "dino009",
      "title": "Carnotaurus",
      "image": "img/carnotaurus_by_elperdido1965-d377um2.jpg",
      "speed": "",
      "height": "",
      "length": "",
      "weight": "",
      "claw": ""
    },
    {
      "id": "dino010",
      "title": "Compsognathus",
      "image": "img/compsognathus_portrait_600.jpg",
      "speed": "",
      "height": "",
      "length": "",
      "weight": "",
      "claw": ""
    },
    {
      "id": "dino011",
      "title": "Spinosaurus",
      "image": "img/dinosaur-1310676_960_720.jpg",
      "speed": "",
      "height": "5.5",
      "length": "17",
      "weight": "8000",
      "claw": "3"
    },
    {
      "id": "dino012",
      "title": "?",
      "image": "img/dinosaurier_windows_7.jpg",
      "speed": "",
      "height": "",
      "length": "",
      "weight": "",
      "claw": ""
    },
    {
      "id": "dino014",
      "title": "Parasaurolopus",
      "image": "img/drinking_then_death.jpg",
      "speed": "",
      "height": "",
      "length": "",
      "weight": "",
      "claw": ""
    },
    {
      "id": "dino015",
      "title": "Quetzlcoatlus",
      "image": "img/Fotolia_Flying_Dinosaur_Quetzlcoatlus_25307386_M.jpg",
      "speed": "",
      "height": "",
      "length": "",
      "weight": "",
      "claw": ""
    },
    {
      "id": "dino016",
      "title": "Liopleurodon",
      "image": "img/Fotolia_Liopleurodon_46459315_M.jpg",
      "speed": "",
      "height": "",
      "length": "",
      "weight": "",
      "claw": ""
    },
    {
      "id": "dino017",
      "title": "Gallimimus",
      "image": "img/gallimimus_of_jurassic_world_by_urbnvampslayer-d8rw2xe.jpg",
      "speed": "70",
      "height": "2.5",
      "length": "5",
      "weight": "~750",
      "claw": "3"
    },
    {
      "id": "dino018",
      "title": "Iguanodon",
      "image": "img/iguanodon.jpg",
      "speed": "",
      "height": "",
      "length": "",
      "weight": "",
      "claw": ""
    },
    {
      "id": "dino019",
      "title": "Pachycephalosaurus",
      "image": "img/Pachycephalosaurus_FULL.jpg",
      "speed": "",
      "height": "",
      "length": "",
      "weight": "",
      "claw": ""
    },
    {
      "id": "dino020",
      "title": "Carnotaurus",
      "image": "img/papo_carnotaurus_by_carnosaur-d6beoig.jpg",
      "speed": "",
      "height": "",
      "length": "",
      "weight": "",
      "claw": ""
    },
    {
      "id": "dino021",
      "title": "Pteranodon",
      "image": "img/pteranodon_of_jurassic_world_by_urbnvampslayer-d8sbzd5.jpg",
      "speed": "",
      "height": "6",
      "length": "4",
      "weight": "16",
      "claw": "4"
    },
    {
      "id": "dino022",
      "title": "Stegosaurus",
      "image": "img/shutterstock_77139622.jpg",
      "speed": "6.5",
      "height": "4.5",
      "length": "9",
      "weight": "4.6",
      "claw": "4"
    },
    {
      "id": "dino023",
      "title": "Tarbosaurus",
      "image": "img/Tarbosaurus-by-Raul-Lunia.jpg",
      "speed": "",
      "height": "",
      "length": "",
      "weight": "",
      "claw": ""
    },
    {
      "id": "dino024",
      "title": "Triceratops",
      "image": "img/Triceratops11.jpg",
      "speed": "",
      "height": "",
      "length": "",
      "weight": "",
      "claw": ""
    },
    {
      "id": "dino025",
      "title": "Triceratops",
      "image": "img/TriceratopsStyrassicPark.jpg",
      "speed": "",
      "height": "",
      "length": "",
      "weight": "",
      "claw": ""
    },
    {
      "id": "dino026",
      "title": "Tylosaurus",
      "image": "img/tylosaurus-20.jpg",
      "speed": "",
      "height": "",
      "length": "",
      "weight": "",
      "claw": ""
    },
    {
      "id": "dino027",
      "title": "Velociraptor",
      "image": "img/velociraptor-by-salvatore-rabito-alcc3b3n.jpg",
      "speed": "",
      "height": "",
      "length": "",
      "weight": "15",
      "claw": ""
    },
    {
      "id": "dino028",
      "title": "Brachiosaurus",
      "image": "img/WWD1x2_Brachiosaurus.jpg",
      "speed": "~20",
      "height": "13",
      "length": "25",
      "weight": "25000",
      "claw": "5"
    },
    {
      "id": "dino029",
      "title": "Allosaurus",
      "image": "img/WWDBook_Allosaurus.jpg",
      "speed": "",
      "height": "4",
      "length": "14",
      "weight": "1500",
      "claw": "3"
    },
    {
      "id": "dino030",
      "title": "Tyranosaurus Rex",
      "image": "img/791620.jpg",
      "speed": "40",
      "height": "6",
      "length": "13",
      "weight": "7000",
      "claw": "3"
    },
    {
      "id": "dino031",
      "title": "?",
      "image": "img/A.jpeg",
      "speed": "",
      "height": "",
      "length": "",
      "weight": "",
      "claw": "3"
    },
    {
      "id": "dino032",
      "title": "Peteinosaurus",
      "image": "img/2cyhi0000f41000.jpg",
      "speed": "",
      "height": "",
      "length": "",
      "weight": "",
      "claw": ""
    },
    {
      "id": "dino033",
      "title": "Protoceratops",
      "image": "img/protoceratops.jpg",
      "speed": "",
      "height": "",
      "length": "",
      "weight": "",
      "claw": ""
    },
    {
      "id": "dino034",
      "title": "Diplodocos",
      "image": "img/diplodocus_04.jpg",
      "speed": "",
      "height": "",
      "length": "",
      "weight": "",
      "claw": ""
    },
    {
      "id": "dino035",
      "title": "Vogelnachahmer",
      "image": "img/9627406306_5ba563e16d_b.jpg",
      "speed": "",
      "height": "",
      "length": "",
      "weight": "",
      "claw": ""
    }
  ]
}
